[07/Jan/2019:09:52:41] (login) login ID   : admin
[07/Jan/2019:09:52:41] (login) REMOTE_ADDR: 114.34.173.90
[07/Jan/2019:09:52:41] (login) result     : LOGIN_YES
[07/Jan/2019:14:05:45] (login) login ID   : admin
[07/Jan/2019:14:05:45] (login) REMOTE_ADDR: 114.34.173.90
[07/Jan/2019:14:05:45] (login) result     : LOGIN_YES
[07/Jan/2019:23:12:22] (login) login ID   : admin
[07/Jan/2019:23:12:22] (login) REMOTE_ADDR: 114.32.193.58
[07/Jan/2019:23:12:22] (login) result     : LOGIN_YES
