[28/Jan/2019:15:17:40] (login) login ID   : admin
[28/Jan/2019:15:17:40] (login) REMOTE_ADDR: 211.21.152.26
[28/Jan/2019:15:17:40] (login) result     : LOGIN_YES
[28/Jan/2019:17:10:16] (login) login ID   : admin
[28/Jan/2019:17:10:16] (login) REMOTE_ADDR: 211.21.152.26
[28/Jan/2019:17:10:16] (login) result     : PWD_ERROR
[28/Jan/2019:17:10:21] (login) login ID   : admin
[28/Jan/2019:17:10:21] (login) REMOTE_ADDR: 211.21.152.26
[28/Jan/2019:17:10:21] (login) result     : LOGIN_YES
